…
## create a data frame

``` r
set.seed(1)
plot_df = tibble(
  x = rnorm(500),
  y = rnorm(500),
  vec_log = x + y > 1
)
num_vec <- as.numeric(pull(plot_df, vec_log))
fac_vec <- as.factor(pull(plot_df, vec_log))
plot_df
```

    ## # A tibble: 500 x 3
    ##         x       y vec_log
    ##     <dbl>   <dbl> <lgl>  
    ##  1 -0.626  0.0773 FALSE  
    ##  2  0.184 -0.297  FALSE  
    ##  3 -0.836 -1.18   FALSE  
    ##  4  1.60   0.0113 TRUE   
    ##  5  0.330  0.992  TRUE   
    ##  6 -0.820  1.59   FALSE  
    ##  7  0.487 -1.37   FALSE  
    ##  8  0.738 -0.250  FALSE  
    ##  9  0.576  1.16   TRUE   
    ## 10 -0.305 -1.11   FALSE  
    ## # … with 490 more rows
…
